{
    "jsp_keymap": {
        "XA": "RA",
        "XRHO": "XRHO",
        "XPSI": "PSI",
        "XPSQ": "SPSI",
        "R": "R",
        "RHO": "RHO",
        "PR": "PR",
        "Q": "Q",
        "NE": "NE",
        "TE": "TE",
        "TI": "TI",
        "ZEFF": "ZEFF",
        "ANGF": "ANGF",
        "NIM1": "NIMP",
        "NIM2": "NIMP2",
        "NIM3": "NIMP3",
        "NIM4": "NIMP4",
        "NIM5": "NIMP5",
        "NIM6": "NIMP6",
        "NIM7": "NIMP7",
        "TRQI": "TRQI",
        "QRAD": "PRAD",
        "QNBE": "QNBE",
        "QNBI": "QNBI",
        "SBD1": "SB1",
        "SBD2": "SB2",
        "JZNB": "JZNB",
        "DNBD": "NB",
        "WNBD": "WFNB",
        "TORQ": "TORQ",
        "QRFE": "QRFE",
        "QRFI": "QRFI",
        "DRFD": "RF",
        "WRFD": "WFRF",
        "QECE": "QECE",
        "JZEC": "JZEC",
        "QEBE": "QEBE",
        "QEBI": "QEBI",
        "JZEB": "JZEB"
    },
    "jst_keymap": {
        "CUR": "CUR"
    }
}
